{
  "project_info": {
    "project_number": "327334796357",
    "project_id": "authenticationnika",
    "storage_bucket": "authenticationnika.appspot.com"
  },
  "client": [
    {
      "client_info": {
        "mobilesdk_app_id": "1:327334796357:android:36cbf7a42fd888bf14d72c",
        "android_client_info": {
          "package_name": "com.example.authentication"
        }
      },
      "oauth_client": [
        {
          "client_id": "327334796357-9frh64u0uucm6i1tugdmafvmismc9agp.apps.googleusercontent.com",
          "client_type": 3
        }
      ],
      "api_key": [
        {
          "current_key": "AIzaSyC6jHbI1gpBULEc4iLzAAdHQwjA5YJ-ESg"
        }
      ],
      "services": {
        "appinvite_service": {
          "other_platform_oauth_client": [
            {
              "client_id": "327334796357-9frh64u0uucm6i1tugdmafvmismc9agp.apps.googleusercontent.com",
              "client_type": 3
            }
          ]
        }
      }
    }
  ],
  "configuration_version": "1"
}